\BOOKMARK [1][-]{section.1}{Ma premi\350re section}{}% 1
\BOOKMARK [2][-]{subsection.1.1}{Une sous-section}{section.1}% 2
\BOOKMARK [2][-]{subsection.1.2}{Une autre sous-section}{section.1}% 3
\BOOKMARK [1][-]{section.2}{Nouvelle section}{}% 4
\BOOKMARK [1][-]{section.3}{Les tableaux}{}% 5
\BOOKMARK [1][-]{section.4}{Ins\351rer une image}{}% 6
\BOOKMARK [1][-]{section.5}{Le mode math\351matique}{}% 7
\BOOKMARK [1][-]{section.6}{Citer ses sources}{}% 8
