\relax 
\providecommand\hyper@newdestlabel[2]{}
\@nameuse{bbl@beforestart}
\catcode `:\active 
\catcode `;\active 
\catcode `!\active 
\catcode `?\active 
\providecommand\HyperFirstAtBeginDocument{\AtBeginDocument}
\HyperFirstAtBeginDocument{\ifx\hyper@anchor\@undefined
\global\let\oldcontentsline\contentsline
\gdef\contentsline#1#2#3#4{\oldcontentsline{#1}{#2}{#3}}
\global\let\oldnewlabel\newlabel
\gdef\newlabel#1#2{\newlabelxx{#1}#2}
\gdef\newlabelxx#1#2#3#4#5#6{\oldnewlabel{#1}{{#2}{#3}}}
\AtEndDocument{\ifx\hyper@anchor\@undefined
\let\contentsline\oldcontentsline
\let\newlabel\oldnewlabel
\fi}
\fi}
\global\let\hyper@last\relax 
\gdef\HyperFirstAtBeginDocument#1{#1}
\providecommand\HyField@AuxAddToFields[1]{}
\providecommand\HyField@AuxAddToCoFields[2]{}
\babel@aux{french}{}
\@writefile{toc}{\contentsline {section}{\numberline {1}Ma première section}{2}{section.1}\protected@file@percent }
\@writefile{toc}{\contentsline {subsection}{\numberline {1.1}Une sous-section}{2}{subsection.1.1}\protected@file@percent }
\newlabel{subsec:1.1}{{1.1}{2}{Une sous-section}{subsection.1.1}{}}
\@writefile{toc}{\contentsline {subsection}{\numberline {1.2}Une autre sous-section}{2}{subsection.1.2}\protected@file@percent }
\@writefile{toc}{\contentsline {section}{\numberline {2}Nouvelle section}{2}{section.2}\protected@file@percent }
\@writefile{toc}{\contentsline {section}{\numberline {3}Les tableaux}{2}{section.3}\protected@file@percent }
\@writefile{lot}{\contentsline {table}{\numberline {1}{\ignorespaces Nom du tableau. }}{2}{table.1}\protected@file@percent }
\newlabel{tableau}{{1}{2}{Nom du tableau}{table.1}{}}
\@writefile{toc}{\contentsline {section}{\numberline {4}Insérer une image}{3}{section.4}\protected@file@percent }
\@writefile{lof}{\contentsline {figure}{\numberline {1}{\ignorespaces Une photo de smiley }}{3}{figure.1}\protected@file@percent }
\newlabel{fig1}{{1}{3}{Une photo de smiley}{figure.1}{}}
\@writefile{toc}{\contentsline {section}{\numberline {5}Le mode mathématique}{3}{section.5}\protected@file@percent }
\newlabel{eq1}{{1}{3}{Le mode mathématique}{equation.5.1}{}}
\newlabel{eq2}{{2}{3}{Le mode mathématique}{equation.5.2}{}}
\newlabel{eq3}{{3}{3}{Le mode mathématique}{equation.5.3}{}}
\bibcite{ref1}{1}
\bibcite{ref2}{2}
\bibcite{ref3}{3}
\@writefile{toc}{\contentsline {section}{\numberline {6}Citer ses sources}{4}{section.6}\protected@file@percent }
