\babel@toc {french}{}
\contentsline {section}{\numberline {1}Ma première section}{2}{section.1}%
\contentsline {subsection}{\numberline {1.1}Une sous-section}{2}{subsection.1.1}%
\contentsline {subsection}{\numberline {1.2}Une autre sous-section}{2}{subsection.1.2}%
\contentsline {section}{\numberline {2}Nouvelle section}{2}{section.2}%
\contentsline {section}{\numberline {3}Les tableaux}{2}{section.3}%
\contentsline {section}{\numberline {4}Insérer une image}{3}{section.4}%
\contentsline {section}{\numberline {5}Le mode mathématique}{3}{section.5}%
\contentsline {section}{\numberline {6}Citer ses sources}{4}{section.6}%
